…
## Example: Persistence diagram using an Alpha complex

``` r
library(rgudhi)
n <- 20
X <- replicate(n, runif(2), simplify = FALSE)
ac <- AlphaComplex$new(points = X)
st <- ac$create_simplex_tree()
dgm <- st$persistence()
dgm
#> # A tibble: 33 × 3
#>    dimension  birth  death
#>        <int>  <dbl>  <dbl>
#>  1         1 0.0363 0.0480
#>  2         1 0.0284 0.0397
#>  3         1 0.0247 0.0314
#>  4         1 0.0297 0.0338
#>  5         1 0.0250 0.0292
#>  6         1 0.0196 0.0224
#>  7         1 0.0200 0.0220
#>  8         1 0.0379 0.0393
#>  9         1 0.0462 0.0475
#> 10         1 0.0307 0.0316
#> # … with 23 more rows
```
