…
    Code
      st$get_boundaries(1:2)
    Output
      # A tibble: 2 x 2
        simplex   filtration
        <list>         <dbl>
      1 <int [1]>         -1
      2 <int [1]>         -2

---

    Code
      st$get_filtration()
    Output
      # A tibble: 41 x 2
         simplex   filtration
         <list>         <dbl>
       1 <int [1]>         -3
       2 <int [1]>         -2
       3 <int [1]>         -2
       4 <int [1]>         -2
       5 <int [2]>         -2
       6 <int [1]>         -2
       7 <int [2]>         -2
       8 <int [1]>         -2
       9 <int [2]>         -2
      10 <int [1]>         -2
      # ... with 31 more rows

---

    Code
      st$get_simplices()
    Output
      # A tibble: 41 x 2
         simplex   filtration
         <list>         <dbl>
       1 <int [3]>          2
       2 <int [2]>         -1
       3 <int [3]>          2
       4 <int [2]>         -2
       5 <int [2]>          2
       6 <int [1]>         -2
       7 <int [3]>          2
       8 <int [2]>         -1
       9 <int [2]>          1
      10 <int [1]>         -1
      # ... with 31 more rows
…
