Vector Representation: Persistence Image — PersistenceImage • rgudhi
…
deep
Whether to make a deep clone.

    Examples

X <- seq_circle(10)
ac <- AlphaComplex$new(points = X)
st <- ac$create_simplex_tree()
dgm <- st$compute_persistence()$persistence_intervals_in_dimension(0)
ds <- DiagramSelector$new(use = TRUE)
dgm <- ds$apply(dgm)
pei <- PersistenceImage$new()
pei$apply(dgm)
#> # A tibble: 400 × 3
#>          X     Y     Value
#>      <dbl> <dbl> <dbl[1d]>
#>  1 0           0      1.43
#>  2 0.00503     0      1.43
#>  3 0.0101      0      1.43
#>  4 0.0151      0      1.43
#>  5 0.0201      0      1.43
#>  6 0.0251      0      1.43
#>  7 0.0302      0      1.43
#>  8 0.0352      0      1.43
#>  9 0.0402      0      1.43
#> 10 0.0452      0      1.43
#> # … with 390 more rows
pei$fit_transform(list(dgm))
#> # A tibble: 400 × 3
#>          X     Y Value    
#>      <dbl> <dbl> <list>   
#>  1 0           0 <dbl [1]>
#>  2 0.00503     0 <dbl [1]>
#>  3 0.0101      0 <dbl [1]>
#>  4 0.0151      0 <dbl [1]>
#>  5 0.0201      0 <dbl [1]>
#>  6 0.0251      0 <dbl [1]>
#>  7 0.0302      0 <dbl [1]>
#>  8 0.0352      0 <dbl [1]>
#>  9 0.0402      0 <dbl [1]>
#> 10 0.0452      0 <dbl [1]>
#> # … with 390 more rows
…
