R6 Class for Simplex Tree — SimplexTree • rgudhi
…
## ------------------------------------------------
## Method `SimplexTree$get_filtration`
## ------------------------------------------------

n <- 10
X <- lapply(
  seq(0, 2 * pi, len = n),
  function(.x) c(cos(.x), sin(.x))
)
ac <- AlphaComplex$new(points = X)
st <- ac$create_simplex_tree()
st$get_filtration()
#> # A tibble: 35 × 2
#>    simplex   filtration
#>    <list>         <dbl>
#>  1 <int [1]>          0
#>  2 <int [1]>          0
#>  3 <int [1]>          0
#>  4 <int [1]>          0
#>  5 <int [1]>          0
#>  6 <int [1]>          0
#>  7 <int [1]>          0
#>  8 <int [1]>          0
#>  9 <int [1]>          0
#> 10 <int [1]>          0
#> # … with 25 more rows

## ------------------------------------------------
## Method `SimplexTree$get_simplices`
## ------------------------------------------------

n <- 10
X <- lapply(
  seq(0, 2 * pi, len = n),
  function(.x) c(cos(.x), sin(.x))
)
ac <- AlphaComplex$new(points = X)
st <- ac$create_simplex_tree()
st$get_simplices()
#> # A tibble: 35 × 2
#>    simplex   filtration
#>    <list>         <dbl>
#>  1 <int [3]>   1   e+ 0
#>  2 <int [2]>   1.17e- 1
#>  3 <int [3]>   1   e+ 0
#>  4 <int [2]>   1   e+ 0
#>  5 <int [2]>   1.50e-32
#>  6 <int [1]>   0       
#>  7 <int [3]>   1.00e+ 0
#>  8 <int [2]>   1.17e- 1
#>  9 <int [3]>   1   e+ 0
#> 10 <int [2]>   1   e+ 0
#> # … with 25 more rows
…
